<svg xmlns="http://www.w3.org/2000/svg" viewBox="0 0 235.667 106.667">
    <path fill-rule="evenodd" clip-rule="evenodd" fill="#1B1A36"
          d="M14.729 56.11a11.916 11.916 0 0 0-1.067-.154c-.993-.097-1.929.096-2.754.623-.323.215-.71.534-.851.909-.025.067-.084.244-.094.27.061.071.294.15.378.174.421.123 1.112-.084 1.506-.232a11.302 11.302 0 0 0 2.882-1.59m27.644-29.876c.253-.049.505-.104.756-.166 1.048-.258 2.059-.647 2.976-1.222.466-.292.902-.671 1.321-1.025.471-.397.907-.834 1.303-1.306.359-.427.665-.896.905-1.4.176-.369.247-.76.24-1.167-.003-.207-.032-.389-.178-.542-.156-.164-.327-.221-.55-.237a2.463 2.463 0 0 0-1.441.325 9.141 9.141 0 0 0-1.687 1.247 12.493 12.493 0 0 0-2.604 3.387c-.36.695-.711 1.396-1.041 2.106zm10.681 15.567c.219-.142.434-.287.648-.437a12.417 12.417 0 0 0 2.384-2.183 12.769 12.769 0 0 0 1.631-2.304c.228-.407.358-.823.388-1.259a5.825 5.825 0 0 0-.661.476c-.275.229-.558.463-.792.703a24.464 24.464 0 0 0-3.17 4.252c-.147.249-.29.5-.428.752zM196.468 26.61c.218-.142.434-.287.647-.437a12.417 12.417 0 0 0 2.384-2.183 12.769 12.769 0 0 0 1.631-2.304c.228-.407.358-.823.388-1.259a5.817 5.817 0 0 0-.661.475c-.275.229-.558.463-.792.703a24.426 24.426 0 0 0-3.597 5.005zm-26.888 1.658c.807-.474 1.6-.997 2.309-1.602.518-.442.987-.958 1.437-1.468a14.06 14.06 0 0 0 1.499-2.056c.262-.434.487-.888.671-1.359-.2.155-.398.312-.594.472-.563.462-1.099.957-1.603 1.483-.471.491-.936.988-1.366 1.475a46.079 46.079 0 0 0-2.353 3.055zM33.128 25.076a59.799 59.799 0 0 1 1.769-2.583 33.304 33.304 0 0 1 3.049-3.637 23.663 23.663 0 0 1 3.675-3.099 15.901 15.901 0 0 1 4.41-2.096 10.582 10.582 0 0 1 2.871-.44c1-.015 2.003.138 2.945.478a6.905 6.905 0 0 1 2.536 1.608c.812.808 1.345 1.811 1.635 2.914a8.217 8.217 0 0 1-.172 4.77 15.425 15.425 0 0 1-1.99 3.9 19.197 19.197 0 0 1-7.166 6.204c-2.534 1.278-5.226 2.051-8.041 2.271-2.346 5.582-4.899 11.075-8.079 16.239-.413.67-.838 1.333-1.276 1.986a38.446 38.446 0 0 1 2.569 1.617 739.068 739.068 0 0 0 3.909 2.666 76.794 76.794 0 0 0 5.149 3.352c1.667.99 3.45 1.757 5.31 2.303l.039.012c1.95.646 3.978.915 6.03.851a13.946 13.946 0 0 0 5.914-1.525 1.644 1.644 0 0 1 1.632.082c.494.315.781.861.76 1.447-.109 3.142-1.13 6.019-3.57 8.101-2.451 2.091-5.592 2.795-8.747 2.751a18.518 18.518 0 0 1-4.95-.734 25.529 25.529 0 0 1-4.442-1.765 34.674 34.674 0 0 1-4.047-2.428 46.169 46.169 0 0 1-3.691-2.877c-1.501-1.292-3.003-2.582-4.49-3.89a104.626 104.626 0 0 0-3.348-2.821 23.965 23.965 0 0 1-3.383 2.48 16.634 16.634 0 0 1-5.585 2.122c-2.229.346-4.641.301-6.655-.831-1.602-.9-2.888-2.177-3.528-3.927-.616-1.683-.54-3.411.065-5.086.672-1.859 1.986-3.254 3.664-4.261 1.867-1.12 3.953-1.701 6.113-1.89 2.001-.175 4.01-.079 5.971.353l.132-.222c.245-.412.494-.822.727-1.241 2.695-4.83 4.891-9.918 7.482-14.804a18.697 18.697 0 0 1-1.846-1.017 14.735 14.735 0 0 1-3.075-2.546 11.89 11.89 0 0 1-2.146-3.328c-.582-1.354-.781-2.803-.671-4.267.07-.943.263-1.885.663-2.746.317-.683.715-1.34 1.236-1.887.421-.442.898-.841 1.443-1.122.547-.282 1.153-.496 1.776-.359a1.64 1.64 0 0 1 1.242 1.2c.264 1.029.644 2.035 1.184 2.952.555.943 1.237 1.812 1.969 2.622a7.937 7.937 0 0 0 1.869 1.536c.378.224.764.427 1.16.612zm93.699-10.577c.013-.376.086-.747.215-1.1.669-1.823 2.212-3.167 3.945-3.955a9.044 9.044 0 0 1 3.354-.818c1.147-.045 2.336.166 3.312.798 1.472.955 2.485 2.375 2.507 4.178.017 1.411-.593 2.75-1.47 3.831-1.233 1.52-2.85 2.888-4.809 3.307a5.516 5.516 0 0 1-4.379-.901c-1.689-1.192-2.746-3.268-2.675-5.34zm-4.719 10.788l-.85.237c-.694.193-1.393.367-2.097.521-.605.133-1.208.27-1.81.416l-.42.102-.717 2.018-.006.016-3.788 10.195c-.221.595-.452 1.186-.679 1.779a64.231 64.231 0 0 0-.993 2.758c-.316.948-.894 2.794-.794 3.808.369-.185.835-.532 1.016-.676 5.482-4.374 7.02-13.363 10.129-19.453.303-.593.639-1.169 1.009-1.721zM100.873 42.51c-1.284 1.385-2.993 2.152-4.961 2.36-2.838.3-5.14-.99-5.459-3.999-.045-.428-.016-.839.01-1.266a2.101 2.101 0 0 1 1.876-1.965c.482-.051.801-.284 1.092-.662.275-.357.482-.759.433-1.222-.03-.281-.255-.414-.49-.537-.672-.352-1.441-.409-2.184-.33-1.517.161-2.847.692-3.87 1.856-.831.946-1.284 1.99-1.149 3.263.073.686.53 1.423.937 1.964.574.761 1.204 1.531 1.93 2.153 1.042.895 2.151 1.71 3.254 2.529.951.706 1.917 1.392 2.838 2.137 3.285 2.656 5.614 6.055 6.067 10.331.456 4.31-1.263 7.991-4.245 11.019-3.245 3.295-7.292 5.062-11.865 5.546-3.177.336-6.599.258-9.598-.949-2.976-1.197-4.732-3.525-5.07-6.714-.191-1.804.266-3.584 1.234-5.111 1.157-1.826 2.972-2.776 5.09-3.001 2.163-.229 4.214.412 5.43 2.312a2.1 2.1 0 0 1-.292 2.628c-.659.652-1.066 1.369-.966 2.317.076.718.293 1.347.921 1.755.791.514 1.787.569 2.699.473 1.783-.189 3.183-.991 4.342-2.345 1.183-1.382 1.622-3.032 1.432-4.829-.268-2.534-3.243-5.394-5.086-6.973a2.186 2.186 0 0 1-.222-.219c-.131-.133-.302-.258-.442-.38-.508-.439-1.02-.873-1.533-1.306a28.545 28.545 0 0 1-2.15-2.008c-.399.585-.814 1.16-1.243 1.725a19.423 19.423 0 0 1-2.899 3.071c-1.015.925-2.213 1.578-3.511 2.014a8.92 8.92 0 0 1-4.235.384 5.54 5.54 0 0 1-3.122-1.443 6.55 6.55 0 0 1-1.795-2.722 10.16 10.16 0 0 1-.119-.333c-.33.38-.666.753-1.009 1.12l-.016.017c-2.318 2.387-5.023 4.509-8.129 5.763-2.713 1.096-5.56 1.319-8.236-.02l-.032-.017a11.554 11.554 0 0 1-4.33-4.042c-1.071-1.693-1.696-3.559-1.816-5.535-.148-1.8.007-3.619.406-5.379a24.715 24.715 0 0 1 1.812-5.193c.8-1.673 1.785-3.25 2.94-4.701 1.133-1.424 2.449-2.691 3.951-3.721 1.553-1.065 3.278-1.864 5.058-2.47 1.902-.648 3.899-.917 5.869-.617 1.025.132 1.996.472 2.838 1.078a5.967 5.967 0 0 1 1.834 2.096c.432.826.66 1.724.71 2.653a8.91 8.91 0 0 1-.276 2.701 11.827 11.827 0 0 1-3.049 5.371c-1.372 1.402-2.938 2.595-4.659 3.496-1.813.991-3.762 1.709-5.769 2.049-.492.098-.991.16-1.491.192h-.001c-.133 1.043-.161 2.191.137 3.117.219.683.572 1.323 1.268 1.601.85.34 1.947.11 2.784-.164 1.627-.533 3.197-1.586 4.532-2.644a18.87 18.87 0 0 0 3.522-4.072 31.663 31.663 0 0 0 2.146-3.864l.076-.247a61.127 61.127 0 0 1 2.353-6.4l1.349-3.111c-.625.134-1.251.276-1.888.344a1.64 1.64 0 0 1-1.563-.751c-.401-.628-.601-1.341-.652-2.08a6.837 6.837 0 0 1 .163-2.016c.148-.641.378-1.26.689-1.839.29-.54.647-1.048 1.093-1.471a9.364 9.364 0 0 1 3.292-2.018 26.586 26.586 0 0 1 3.227-.951c.061-.014.122-.024.184-.031l.087-.01.999-2.502a12.063 12.063 0 0 0 .514-1.334 4.951 4.951 0 0 1 1.254-2.024c.646-.601 1.479-.835 2.347-.788.638.034 1.265.16 1.867.373a6.126 6.126 0 0 1 1.66.885c.49.372.933.812 1.191 1.379l.02.047c.311.77.434 1.615.19 2.424-.073.244-.153.485-.236.726l.028.004.036.006a6.258 6.258 0 0 1 2.809 1.292 5.416 5.416 0 0 1 1.792 2.633c.23.736.407 1.557.051 2.287-.37.759-1.125 1.094-1.893 1.302-.554.15-1.106.306-1.659.46a38.86 38.86 0 0 1-2.096.521 86.198 86.198 0 0 0-2.229.519l-.717 2.019-.006.016-3.788 10.195c-.221.595-.452 1.186-.68 1.778a64.231 64.231 0 0 0-.993 2.758c-.316.948-.894 2.794-.794 3.808.37-.185.836-.532 1.016-.676 1.099-.877 2.054-2.013 2.882-3.144.209-.285.407-.577.599-.873a13.052 13.052 0 0 1-.668-3.014c-.412-3.89.824-7.352 3.642-10.072 2.78-2.682 6.188-4.139 10.011-4.543 2.877-.304 6.427-.335 8.984 1.19 1.972 1.177 3.352 2.897 3.68 5.182.355-.947.733-1.885 1.134-2.814l1.349-3.111c-.625.134-1.251.276-1.888.344a1.64 1.64 0 0 1-1.563-.751c-.402-.628-.601-1.341-.652-2.081a6.868 6.868 0 0 1 .163-2.016 7.459 7.459 0 0 1 .689-1.839c.29-.54.648-1.048 1.093-1.471a9.341 9.341 0 0 1 3.292-2.018 26.81 26.81 0 0 1 3.226-.952 1.44 1.44 0 0 1 .184-.03l.086-.01.999-2.502.02-.047c.188-.419.354-.849.494-1.288a4.951 4.951 0 0 1 1.218-1.989l.036-.034c.646-.601 1.479-.835 2.347-.788.638.034 1.265.16 1.868.373a6.106 6.106 0 0 1 1.659.885c.49.372.933.812 1.191 1.379l.021.047c.311.771.434 1.615.19 2.424a17.06 17.06 0 0 1-.236.726.274.274 0 0 1 .028.005l.036.006a6.26 6.26 0 0 1 2.808 1.292 5.42 5.42 0 0 1 1.792 2.633c.082.265.158.54.205.819.249-.144.509-.27.775-.381a7.278 7.278 0 0 1 2.274-.539 7.924 7.924 0 0 1 2.294.156 4.402 4.402 0 0 1 2.316 1.306c.526.565.588 1.423.151 2.059-.471.684-.864 1.438-1.235 2.18a53.806 53.806 0 0 0-1.401 3.038 289.03 289.03 0 0 0-1.294 3.098 33.28 33.28 0 0 0-.873 2.33c-.394 1.209-.781 2.42-1.146 3.637a38.703 38.703 0 0 0-.88 3.517c-.108.693-.202 1.497-.134 2.207.057-.03.107-.059.143-.08.871-.511 1.764-1.444 2.44-2.19 1.059-1.167 1.998-2.439 2.847-3.766.832-1.3 1.426-2.625 1.937-4.078.467-1.329.908-2.663 1.481-3.952 2.642-5.948 10.845-13.578 17.889-11.223 1.23.411 2.247 1.153 2.969 2.237a.315.315 0 0 1 .012.019c.605.946.893 2.028.965 3.142a11.663 11.663 0 0 1-.278 3.331 11.727 11.727 0 0 1-1.228 3.194c-.557.985-1.284 1.861-2.227 2.498-.955.691-2.06 1.063-3.223 1.208a8.897 8.897 0 0 1-3.468-.233 1.638 1.638 0 0 1-1.125-1.059 1.641 1.641 0 0 1 .246-1.526 12.3 12.3 0 0 0 1.242-2.079 17.23 17.23 0 0 0 .855-2.095 19.99 19.99 0 0 0-2.323 3.561l-.025.046a22.633 22.633 0 0 0-1.579 3.478 16.79 16.79 0 0 0-.897 3.76c-.134.829-.261 2.152.14 2.924.237.455.543.787 1.048.926.706.193 1.514.046 2.197-.171 1.117-.353 2.159-.961 3.099-1.652a19.252 19.252 0 0 0 3.799-3.728 19.865 19.865 0 0 0 2.123-3.424 127.788 127.788 0 0 1 3.162-7.923l3.286-7.467 2.793-6.152.018-.038c.298-.6.547-1.229.793-1.852.352-.892.712-1.78 1.055-2.674.429-1.119.867-2.235 1.332-3.339a1.645 1.645 0 0 1 1.58-1.008 8.697 8.697 0 0 1 2.03.318c.561.186 1.102.428 1.626.702a5.47 5.47 0 0 1 1.8 1.523c.03.038.057.077.083.118.427.667.625 1.476.729 2.253.151 1.135-.139 2.317-.527 3.379a29.777 29.777 0 0 1-1.311 3.078 88.887 88.887 0 0 0-1.13 2.374c.219-.167.454-.309.691-.452.401-.244.822-.453 1.251-.641a15.83 15.83 0 0 1 1.383-.531c.335-.111.681-.2 1.032-.247a4.89 4.89 0 0 1 2.638-.773 4.997 4.997 0 0 1 3.078.999c1.127.777 1.901 1.848 2.319 3.151a9.26 9.26 0 0 1 .415 3.626l-.003.034a11.202 11.202 0 0 1-1.059 3.605 17.067 17.067 0 0 1-1.979 3.159 17.586 17.586 0 0 1-2.624 2.679 20.957 20.957 0 0 1-2.872 2.002 1.578 1.578 0 0 1-.128.069 54.75 54.75 0 0 1-1.577.728c-.186.082-.374.161-.562.236.02.146.043.29.064.429.127.844.31 1.679.532 2.503.208.771.474 1.531.821 2.252.067.14.265.511.359.583.225.085.434.065.66-.008a4.922 4.922 0 0 0 1.321-.679c.485-.345.939-.731 1.357-1.155.387-.393.75-.811 1.081-1.252a32.928 32.928 0 0 0 2.602-4.01c.375-.688.73-1.386 1.066-2.094.045-.241.095-.482.149-.721a24.735 24.735 0 0 1 1.812-5.193c.8-1.673 1.786-3.25 2.94-4.701 1.133-1.424 2.449-2.691 3.951-3.721 1.553-1.065 3.278-1.864 5.057-2.47 1.902-.648 3.9-.917 5.869-.617 1.025.132 1.995.472 2.838 1.078a5.97 5.97 0 0 1 1.835 2.096c.431.827.66 1.724.709 2.653a8.91 8.91 0 0 1-.276 2.701c-.532 2.056-1.565 3.855-3.048 5.372a18.653 18.653 0 0 1-4.66 3.496c-1.813.991-3.762 1.709-5.769 2.049-.492.098-.99.16-1.491.192h-.001c-.133 1.043-.161 2.191.137 3.117.219.683.572 1.323 1.268 1.601.849.34 1.947.111 2.784-.164 1.628-.533 3.197-1.587 4.532-2.644a18.792 18.792 0 0 0 3.409-3.901 61.935 61.935 0 0 0 2.024-3.917 54.837 54.837 0 0 0 3.389-9.318 6.17 6.17 0 0 1-.723-2.761c-.019-1.027.139-2.065.544-3.014.402-.941 1.026-1.738 1.909-2.27 1.058-.637 2.237-.623 3.323-.064 1.252.644 1.931 1.828 1.875 3.232-.008.208-.022.415-.042.622.486-.106.965-.241 1.432-.414.389-.63.856-1.244 1.432-1.695 1.127-.882 2.481-.626 3.565.09 1.494.924 3.092 2.213 3.635 3.951.501 1.603.092 3.138-.896 4.449a81.431 81.431 0 0 0-3.448 6.196c-.942 1.874-1.787 3.85-2.311 5.885-.184.713-.411 1.8-.265 2.53.012.057.036.168.068.258.18-.036.44-.154.543-.205.772-.384 1.395-1.17 1.983-1.781a1.637 1.637 0 0 1 1.528-.47c.184.039.368.082.549.134 4.837 1.385 5.582 6.493 4.373 10.714-1.124 3.926-4.599 6.499-8.079 8.267-4.721 2.398-10.427 3.891-15.578 5.046-6.761 1.516-13.655 2.629-20.495 3.729-7.615 1.225-15.236 2.41-22.817 3.835-11.042 2.076-22.543 4.688-32.941 9.002-8.633 3.582-17.37 8.758-22.626 16.721a29.806 29.806 0 0 0-3.862 8.482l-.275.991a1.65 1.65 0 0 1-1.873 1.184c-8.43-1.471-14.651-4.317-18.301-12.511a1.644 1.644 0 0 1 .079-1.498l.273-.471a38.108 38.108 0 0 1 2.132-3.409c13.191-18.819 42.893-25.156 64.303-28.298 8.801-1.292 17.651-2.213 26.505-3.046 7.829-.736 15.67-1.375 23.483-2.277 3.199-.369 6.394-.784 9.567-1.331 2.529-.436 5.062-.949 7.52-1.693 2.077-.629 6.179-2.051 6.895-4.357.12-.387.14-.787.094-1.183-1.254.782-2.654 1.366-4.086 1.615-1.34.233-2.7.156-3.979-.323a6.819 6.819 0 0 1-3.107-2.338c-.868-1.158-1.319-2.541-1.512-3.963-.131-.967-.104-1.955.022-2.931-.568 1.085-1.216 2.137-1.986 3.089-2.691 3.329-7.761 7.965-11.732 9.569-2.713 1.095-5.56 1.318-8.236-.021l-.033-.017a11.551 11.551 0 0 1-4.329-4.042c-.196-.31-.378-.627-.545-.951a36.217 36.217 0 0 1-2.654 3.407c-1.204 1.373-2.606 2.546-4.2 3.442a9.016 9.016 0 0 1-4.639 1.157 7.464 7.464 0 0 1-4.599-1.697 8.802 8.802 0 0 1-2.148-2.343 12.778 12.778 0 0 1-1.267-2.66 14.495 14.495 0 0 1-.657-2.839 26.223 26.223 0 0 1-.203-2.729 5.03 5.03 0 0 1-.01-.127 69.46 69.46 0 0 0-2.07 4.295l-.009.021c-.18.388-.321.799-.471 1.199a243.175 243.175 0 0 1-1.81 4.688c-.249.628-.499 1.255-.758 1.879a1.64 1.64 0 0 1-1.421 1.013c-1.327.082-2.553-.356-3.62-1.129-.87-.631-1.532-1.436-1.905-2.408-.155.143-.311.286-.469.426-2.011 1.79-4.326 3.256-6.931 3.998-2.212.631-4.524.763-6.714-.033-2.218-.806-3.767-2.452-4.78-4.547a7.628 7.628 0 0 1-.146-.319c-.346.479-.703.947-1.07 1.4-1.504 1.967-3.395 4.086-5.578 5.3-1.704.948-3.628 1.448-5.515.849-1.715-.503-3.074-1.542-3.867-3.161a11.735 11.735 0 0 1-.532-1.268c-.153.209-.308.418-.465.625a19.373 19.373 0 0 1-2.899 3.07c-1.015.925-2.213 1.578-3.511 2.014a8.915 8.915 0 0 1-4.234.383 5.533 5.533 0 0 1-3.122-1.443 6.576 6.576 0 0 1-1.795-2.722 10.146 10.146 0 0 1-.642-3.147c-.045-1.036.02-2.075.184-3.099.1-.576.21-1.142.338-1.704z"/>
</svg>